module gin-poc-UserAPI

go 1.13

require (
	github.com/gin-gonic/gin v1.6.2
	github.com/go-sql-driver/mysql v1.5.0
	github.com/jinzhu/gorm v1.9.16
	github.com/mattn/go-sqlite3 v2.0.1+incompatible // indirect
	google.golang.org/appengine v1.4.0 // indirect
)
